{
	"lichConfig": {
		"eternalNighttime": true,
		"experienceDrop": 5000,
		"idleHealingPerTick": 1.0,
		"health": 1500.0,
		"missile": {
			"statusEffectId": "minecraft:slowness",
			"statusEffectDuration": 100,
			"statusEffectPotency": 2,
			"damage": 12.0
		},
		"comet": {
			"explosionStrength": 4.0,
			"destroysBlocks": true
		},
		"summonMechanic": {
			"isEnabled": true,
			"entitiesThatCountToSummonCounter": [
				"minecraft:zombie",
				"minecraft:skeleton",
				"minecraft:drowned",
				"minecraft:giant",
				"minecraft:husk",
				"minecraft:phantom",
				"minecraft:skeleton_horse",
				"minecraft:stray",
				"minecraft:wither",
				"minecraft:wither_skeleton",
				"minecraft:zoglin",
				"minecraft:zombie_horse",
				"minecraft:zombie_villager",
				"minecraft:zombified_piglin"
			],
			"numEntitiesKilledToDropSoulStar": 50
		},
		"towerGeneration": {
			"generateLichTower": true,
			"lichTowerGenerationSpacing": 100,
			"lichTowerGenerationSeparation": 50
		}
	},
	"obsidilithConfig": {
		"health": 2000.0,
		"armor": 14.0,
		"attack": 18.0,
		"idleHealingPerTick": 1.5,
		"experienceDrop": 5000,
		"spawnPillarOnDeath": true,
		"anvilAttackExplosionStrength": 5.0,
		"arenaGeneration": {
			"generationHeight": 90,
			"generationSpacing": 64,
			"generationSeparation": 32,
			"generationEnabled": true
		}
	},
	"gauntletConfig": {
		"health": 2000.0,
		"armor": 8.0,
		"attack": 20.0,
		"idleHealingPerTick": 1.5,
		"experienceDrop": 5000,
		"spawnAncientDebrisOnDeath": true,
		"energizedPunchExplosionSize": 4.5,
		"normalPunchExplosionMultiplier": 1.5,
		"arenaGeneration": {
			"generationSpacing": 32,
			"generationSeparation": 16,
			"generationEnabled": true
		}
	},
	"voidBlossomConfig": {
		"health": 3000.0,
		"armor": 4.0,
		"attack": 16.0,
		"idleHealingPerTick": 4.0,
		"experienceDrop": 15000,
		"arenaGeneration": {
			"generationSpacing": 64,
			"generationSeparation": 24,
			"generationEnabled": true
		}
	}
}